…
## Who won the most Emmys?

``` r
winners <- nominees %>%
  filter(type == "Winner") %>%
  select(-type)

(
  winners_count <- winners %>%
    count(title, sort = TRUE)
)
```

    ## # A tibble: 719 × 2
    ##    title                                  n
    ##    <chr>                              <int>
    ##  1 Game Of Thrones                      245
    ##  2 Saturday Night Live                  229
    ##  3 Last Week Tonight With John Oliver   148
    ##  4 The Daily Show With Jon Stewart      133
    ##  5 RuPaul's Drag Race                    98
    ##  6 The Amazing Race                      88
    ##  7 The Voice                             87
    ##  8 Dancing With The Stars                81
    ##  9 American Idol                         73
    ## 10 Modern Family                         71
    ## # … with 709 more rows
…
